{
	"one_time": false,
	"buttons": [
		[
			{
				"action":{
					"type": "text",
					"label": "Дз-задачи-1/2/3"
				},
				"color": "positive"
			},
			{
				"action":{
					"type": "text",
					"label": "Дз-задача-4"
				},
				"color": "positive"
			},
			{
				"action":{
					"type": "text",
					"label": "Назад" 
				},	
				"color": "negative"
			}
		]
	]
}