{
	"one_time": false,
	"buttons": [
		[
			{
				"action":{
					"type": "text",
					"label": "ДЗ1"
				},
				"color": "positive"
			},
			{
				"action":{
					"type": "text",
					"label": "ДЗ2"
				},
				"color": "positive"
			},
			{
				"action":{
					"type": "text",
					"label": "ДЗ3"
				},
				"color": "positive"
			},
			{
				"action":{
					"type": "text",
					"label": "ДЗ4"
				},
				"color": "positive"
			}
		],
		[
			{
				"action":{
					"type": "text",
					"label": "Подшипники"
				},
				"color": "positive"
			},
			{
				"action":{
					"type": "text",
					"label": "Назад" 
				},	
				"color": "negative"
			}
		]
	]
}